id;shipped_at;order_id;shipped_by_id
1;2019-06-27;5;2
2;2019-06-27;6;1
3;2019-06-27;3;1
4;2019-06-27;2;2
5;2019-06-26;4;1
6;2019-06-26;10;2
7;2019-06-27;8;1
8;2019-06-27;7;2
9;2019-06-27;1;2
10;2019-06-27;9;2
